module todoapp

go 1.19

require (
	github.com/gin-gonic/gin v1.8.1
	github.com/joho/godotenv v1.4.0
	go.mongodb.org/mongo-driver v1.10.1
	golang.org/x/crypto v0.0.0-20220622213112-05595931fe9d
)

require (
	github.com/gin-contrib/cors v1.4.0 // indirect
	github.com/gin-contrib/sse v0.1.0 // indirect
	github.com/glebarez/go-sqlite v1.17.3 // indirect
	github.com/glebarez/sqlite v1.4.6 // indirect
	github.com/go-playground/locales v0.14.0 // indirect
	github.com/go-playground/universal-translator v0.18.0 // indirect
	github.com/go-playground/validator/v10 v10.10.0 // indirect
	github.com/goccy/go-json v0.9.7 // indirect
	github.com/golang/snappy v0.0.1 // indirect
	github.com/google/uuid v1.3.0 // indirect
	github.com/jinzhu/inflection v1.0.0 // indirect
	github.com/jinzhu/now v1.1.5 // indirect
	github.com/json-iterator/go v1.1.12 // indirect
	github.com/klauspost/compress v1.13.6 // indirect
	github.com/leodido/go-urn v1.2.1 // indirect
	github.com/mattn/go-isatty v0.0.14 // indirect
	github.com/mattn/go-sqlite3 v1.14.15 // indirect
	github.com/modern-go/concurrent v0.0.0-20180228061459-e0a39a4cb421 // indirect
	github.com/modern-go/reflect2 v1.0.2 // indirect
	github.com/montanaflynn/stats v0.0.0-20171201202039-1bf9dbcd8cbe // indirect
	github.com/pelletier/go-toml/v2 v2.0.1 // indirect
	github.com/pkg/errors v0.9.1 // indirect
	github.com/remyoudompheng/bigfft v0.0.0-20200410134404-eec4a21b6bb0 // indirect
	github.com/ugorji/go/codec v1.2.7 // indirect
	github.com/xdg-go/pbkdf2 v1.0.0 // indirect
	github.com/xdg-go/scram v1.1.1 // indirect
	github.com/xdg-go/stringprep v1.0.3 // indirect
	github.com/youmark/pkcs8 v0.0.0-20181117223130-1be2e3e5546d // indirect
	golang.org/x/net v0.0.0-20211112202133-69e39bad7dc2 // indirect
	golang.org/x/sync v0.0.0-20210220032951-036812b2e83c // indirect
	golang.org/x/sys v0.0.0-20220405052023-b1e9470b6e64 // indirect
	golang.org/x/text v0.3.7 // indirect
	google.golang.org/protobuf v1.28.0 // indirect
	gopkg.in/yaml.v2 v2.4.0 // indirect
	gorm.io/driver/sqlite v1.3.6 // indirect
	gorm.io/gorm v1.23.8 // indirect
	modernc.org/libc v1.16.8 // indirect
	modernc.org/mathutil v1.4.1 // indirect
	modernc.org/memory v1.1.1 // indirect
	modernc.org/sqlite v1.17.3 // indirect
)
